…
8.3 What is the Average Rating for a Word

These are words that appeared more than x10

reviews_processed %>%
  unnest_tokens(word, content) %>% 
  anti_join(stop_words, by="word") %>% 
  group_by(word) %>% 
  summarize(avg_rating = mean(score, na.rm = TRUE),
            n = n()) %>%
  filter(n > 10) %>% 
  arrange(avg_rating)

## # A tibble: 35 x 3
##    word    avg_rating     n
##    <chr>        <dbl> <int>
##  1 slow          1.17    12
##  2 fake          1.38    16
##  3 invalid       1.41    34
##  4 enter         1.44    18
##  5 telling       1.67    12
##  6 phone         1.8     30
##  7 error         1.9     20
##  8 support       2.14    14
##  9 account       2.15    26
## 10 xente         2.2     40
## # ... with 25 more rows

reviews_processed %>%
  unnest_tokens(word, content) %>% 
  anti_join(stop_words, by="word") %>% 
  group_by(word) %>% 
  summarize(avg_rating = mean(score, na.rm = TRUE),
            n = n()) %>%
  filter(n > 10) %>% 
  arrange(desc(avg_rating))

## # A tibble: 35 x 3
##    word       avg_rating     n
##    <chr>           <dbl> <int>
##  1 love             5       24
##  2 awesome          4.88    16
##  3 easy             4.78    18
##  4 card             4.67    12
##  5 cool             4.5     12
##  6 nice             4.15    26
##  7 buy              4.08    24
##  8 service          3.89    18
##  9 experience       3.86    14
## 10 pay              3.62    16
## # ... with 25 more rows
…
