…
# Load the readr, ggplot2, and dplyr packages
if(!require(pacman))install.packages("pacman")

pacman::p_load('tidyverse',  'ggalt',
               'forcats', 'R.utils', 'png', 
               'grid', 'ggpubr', 'scales',
               'bbplot')

confirmed_cases_worldwide <- readr::read_csv("data/confirmed_cases_worldwide.csv")

# See the result
confirmed_cases_worldwide

## # A tibble: 56 x 2
##    date       cum_cases
##    <date>         <dbl>
##  1 2020-01-22       555
##  2 2020-01-23       653
##  3 2020-01-24       941
##  4 2020-01-25      1434
##  5 2020-01-26      2118
##  6 2020-01-27      2927
##  7 2020-01-28      5578
##  8 2020-01-29      6166
##  9 2020-01-30      8234
## 10 2020-01-31      9927
## # ... with 46 more rows
…
