…
8.3 What is the Average Rating for a Word

These are words that appeared more than x100

## Best avg Rating
reviews_processed %>%
  unnest_tokens(word, content) %>% 
  anti_join(stop_words, by="word") %>% 
  group_by(word) %>% 
  summarize(avg_rating = mean(score, na.rm = TRUE),
            n = n()) %>%
  filter(n > 100) %>% 
  arrange(desc(avg_rating))

## # A tibble: 50 x 3
##    word       avg_rating     n
##    <chr>           <dbl> <int>
##  1 perfect          4.92   233
##  2 fantastic        4.91   115
##  3 excellent        4.90   334
##  4 amazing          4.82   218
##  5 wonderful        4.77   122
##  6 convenient       4.74   204
##  7 transport        4.72   166
##  8 cheap            4.72   134
##  9 reliable         4.68   221
## 10 easy             4.67   265
## # ... with 40 more rows

## Worst avg Rating
reviews_processed %>%
  unnest_tokens(word, content) %>% 
  anti_join(stop_words, by="word") %>% 
  group_by(word) %>% 
  summarize(avg_rating = mean(score, na.rm = TRUE),
            n = n()) %>%
  filter(n > 100) %>% 
  arrange(avg_rating)

## # A tibble: 50 x 3
##    word     avg_rating     n
##    <chr>         <dbl> <int>
##  1 error          1.83   186
##  2 version        2.03   109
##  3 phone          2.18   149
##  4 update         2.24   224
##  5 location       2.25   233
##  6 download       2.25   102
##  7 rider          2.53   197
##  8 slow           2.61   158
##  9 takes          2.70   121
## 10 trip           2.73   105
## # ... with 40 more rows
…
